<?xml version="1.0" encoding="UTF-8"?>
<Project>
   <description></description>
   <name>Ajaib UAT</name>
   <tag></tag>
   <UUID>7df5ef5b-db00-464d-a86d-4b643b74c1dd</UUID>
   <migratedVersion>5.9.0</migratedVersion>
   <pageLoadTimeout>0</pageLoadTimeout>
   <projectFileLocation>D:\Repository\Web\Ajaib_UI\Ajaib UAT.prj</projectFileLocation>
   <sourceContent>
      <sourceFolderList>
         <sourceFolderConfiguration>
            <url>Include/scripts/groovy</url>
         </sourceFolderConfiguration>
      </sourceFolderList>
      <systemFolderList>
         <systemFolderConfiguration>
            <url>Include/scripts/groovy</url>
         </systemFolderConfiguration>
         <systemFolderConfiguration>
            <url>Include/features</url>
         </systemFolderConfiguration>
         <systemFolderConfiguration>
            <url>Include/config</url>
         </systemFolderConfiguration>
      </systemFolderList>
   </sourceContent>
   <type>WEBUI</type>
</Project>
